{
    "hasMore": false,
    "pageToken": null,
    "recordsTotal": 18,
    "recordsFiltered": 18,
    "pagable": {
        "totalElements": 18,
        "pageNumber": 0,
        "pageSize": 1,
        "offset": 0,
        "totalPages": 18,
        "sorted": true
    },
    "data": [
        {
            "distance": 0,
            "member": {
                "memberId": "62567725a10d3d49c0f7a8b2",
                "_id": "62567725a10d3d49c0f7a8b2",
                "name": "hllo",
                "userName": "vignesh",
                "createdAt": "2022-04-13T12:39:25.685",
                "profileImage": "https://mekeet.s3.ap-southeast-1.amazonaws.com/16503729817496225-file_1650372980.473579.jpeg",
                "role": "MEMBER",
                "accountType": "PERSONAL",
                "score": 0.0,
                "reviewCount": 0,
                "session": {
                    "active": false,
                    "sessionId": "3326b37c-aeae-be59-25f2-bdaeb2fde26e",
                    "startedAt": "2022-09-19T07:14:40.928",
                    "endedAt": "2022-09-19T07:15:25.087"
                },
                "comments": 3,
                "location": {
                    "type": "Point",
                    "coordinates": [
                        79.761892,
                        11.7478164
                    ]
                },
                "status": "ACTIVE",
                "following": false,
                "requested": false,
                "blocked": false,
                "followedBy": true,
                "requestedBy": false,
                "blockedBy": false,
                "private": false
            },
            "comments": null,
            "categoryDetail": {
                "id": "628e61ca29fe1677858684bf",
                "name": "Mobile Phone",
                "url": "https://meeketapi.s3.ap-southeast-1.amazonaws.com/trade-category/mobile-phone.svg",
                "type": "PRODUCT",
                "translations": []
            },
            "recentListings": [],
            "listingId": "63244d5ab2df6253ddac0c99",
            "title": "Apple Trade",
            "description": "English trade",
            "category": "Mobile Phone",
            "price": 250.0,
            "currency": "INR",
            "locationName": "Manjakuppam",
            "location": {
                "type": "Point",
                "coordinates": [
                    79.761892,
                    11.7478164
                ]
            },
            "negotiable": false,
            "postedBy": "62567725a10d3d49c0f7a8b2",
            "showInProfile": true,
            "tagLocationName": null,
            "tagLocation": null,
            "feelingQuote": null,
            "postedAt": "2022-09-16T10:18:02.581",
            "updatedAt": null,
            "status": "ACTIVE",
            "type": "PRODUCT",
            "images": [
                {
                    "id": "63244d5ab2df6253ddac0c97",
                    "fileName": "16633234818269517-file_1663323480.9246302.jpeg",
                    "originalFileName": "file_1663323480.9246302.jpeg",
                    "url": "https://image.shutterstock.com/image-photo/red-apple-isolated-on-white-260nw-1727544364.jpg",
                    "primary": true,
                    "moderationRequired": false,
                    "nsfwPredictions": null,
                    "type": null,
                    "duration": 0.0,
                    "height": 0,
                    "width": 0,
                    "thumbnails": []
                }
            ],
            "likeCount": 0,
            "likes": null,
            "saveCount": 0,
            "commentCount": 0,
            "saves": null,
            "messageCount": 0,
            "reportCount": 0,
            "messagedByIds": null,
            "safe": false,
            "moderationRequired": false,
            "statusMessage": null,
            "textScore": null,
            "tags": [
                "English",
                "trade"
                
            ]
        },
         {
            "distance": 0,
            "member": {
                "memberId": "62567725a10d3d49c0f7a8b2",
                "_id": "62567725a10d3d49c0f7a8b2",
                "name": "hllo",
                "userName": "vignesh",
                "createdAt": "2022-04-13T12:39:25.685",
                "profileImage": "https://mekeet.s3.ap-southeast-1.amazonaws.com/16503729817496225-file_1650372980.473579.jpeg",
                "role": "MEMBER",
                "accountType": "PERSONAL",
                "score": 0.0,
                "reviewCount": 0,
                "session": {
                    "active": false,
                    "sessionId": "3326b37c-aeae-be59-25f2-bdaeb2fde26e",
                    "startedAt": "2022-09-19T07:14:40.928",
                    "endedAt": "2022-09-19T07:15:25.087"
                },
                "comments": 3,
                "location": {
                    "type": "Point",
                    "coordinates": [
                        79.761892,
                        11.7478164
                    ]
                },
                "status": "ACTIVE",
                "following": false,
                "requested": false,
                "blocked": false,
                "followedBy": true,
                "requestedBy": false,
                "blockedBy": false,
                "private": false
            },
            "comments": null,
            "categoryDetail": {
                "id": "628e61ca29fe1677858684bf",
                "name": "Mobile Phone",
                "url": "https://meeketapi.s3.ap-southeast-1.amazonaws.com/trade-category/mobile-phone.svg",
                "type": "PRODUCT",
                "translations": []
            },
            "recentListings": [],
            "listingId": "63244d5ab2df6253ddac0c99",
            "title": "English trade",
            "description": "English trade",
            "category": "Mobile Phone",
            "price": 677.0,
            "currency": "INR",
            "locationName": "Manjakuppam",
            "location": {
                "type": "Point",
                "coordinates": [
                    79.761892,
                    11.7478164
                ]
            },
            "negotiable": false,
            "postedBy": "62567725a10d3d49c0f7a8b2",
            "showInProfile": true,
            "tagLocationName": null,
            "tagLocation": null,
            "feelingQuote": null,
            "postedAt": "2022-09-16T10:18:02.581",
            "updatedAt": null,
            "status": "ACTIVE",
            "type": "PRODUCT",
            "images": [
                {
                    "id": "63244d5ab2df6253ddac0c97",
                    "fileName": "16633234818269517-file_1663323480.9246302.jpeg",
                    "originalFileName": "file_1663323480.9246302.jpeg",
                    "url": "https://dev.meeket.vn/api/v1.0/files/16633234818269517-file_1663323480.9246302.jpeg",
                    "primary": true,
                    "moderationRequired": false,
                    "nsfwPredictions": null,
                    "type": null,
                    "duration": 0.0,
                    "height": 0,
                    "width": 0,
                    "thumbnails": []
                }
            ],
            "likeCount": 0,
            "likes": null,
            "saveCount": 0,
            "commentCount": 0,
            "saves": null,
            "messageCount": 0,
            "reportCount": 0,
            "messagedByIds": null,
            "safe": false,
            "moderationRequired": false,
            "statusMessage": null,
            "textScore": null,
            "tags": [
                "English",
                "trade"
            ]
        },
         {
            "distance": 0,
            "member": {
                "memberId": "62567725a10d3d49c0f7a8b2",
                "_id": "62567725a10d3d49c0f7a8b2",
                "name": "hllo",
                "userName": "vignesh",
                "createdAt": "2022-04-13T12:39:25.685",
                "profileImage": "https://mekeet.s3.ap-southeast-1.amazonaws.com/16503729817496225-file_1650372980.473579.jpeg",
                "role": "MEMBER",
                "accountType": "PERSONAL",
                "score": 0.0,
                "reviewCount": 0,
                "session": {
                    "active": false,
                    "sessionId": "3326b37c-aeae-be59-25f2-bdaeb2fde26e",
                    "startedAt": "2022-09-19T07:14:40.928",
                    "endedAt": "2022-09-19T07:15:25.087"
                },
                "comments": 3,
                "location": {
                    "type": "Point",
                    "coordinates": [
                        79.761892,
                        11.7478164
                    ]
                },
                "status": "ACTIVE",
                "following": false,
                "requested": false,
                "blocked": false,
                "followedBy": true,
                "requestedBy": false,
                "blockedBy": false,
                "private": false
            },
            "comments": null,
            "categoryDetail": {
                "id": "628e61ca29fe1677858684bf",
                "name": "Mobile Phone",
                "url": "https://meeketapi.s3.ap-southeast-1.amazonaws.com/trade-category/mobile-phone.svg",
                "type": "PRODUCT",
                "translations": []
            },
            "recentListings": [],
            "listingId": "63244d5ab2df6253ddac0c99",
            "title": "English trade",
            "description": "English trade",
            "category": "Mobile Phone",
            "price": 677.0,
            "currency": "INR",
            "locationName": "Manjakuppam",
            "location": {
                "type": "Point",
                "coordinates": [
                    79.761892,
                    11.7478164
                ]
            },
            "negotiable": false,
            "postedBy": "62567725a10d3d49c0f7a8b2",
            "showInProfile": true,
            "tagLocationName": null,
            "tagLocation": null,
            "feelingQuote": null,
            "postedAt": "2022-09-16T10:18:02.581",
            "updatedAt": null,
            "status": "ACTIVE",
            "type": "PRODUCT",
            "images": [
                {
                    "id": "63244d5ab2df6253ddac0c97",
                    "fileName": "16633234818269517-file_1663323480.9246302.jpeg",
                    "originalFileName": "file_1663323480.9246302.jpeg",
                    "url": "https://dev.meeket.vn/api/v1.0/files/16633234818269517-file_1663323480.9246302.jpeg",
                    "primary": true,
                    "moderationRequired": false,
                    "nsfwPredictions": null,
                    "type": null,
                    "duration": 0.0,
                    "height": 0,
                    "width": 0,
                    "thumbnails": []
                }
            ],
            "likeCount": 0,
            "likes": null,
            "saveCount": 0,
            "commentCount": 0,
            "saves": null,
            "messageCount": 0,
            "reportCount": 0,
            "messagedByIds": null,
            "safe": false,
            "moderationRequired": false,
            "statusMessage": null,
            "textScore": null,
            "tags": [
                "English",
                "trade"
            ]
        },
         {
            "distance": 0,
            "member": {
                "memberId": "62567725a10d3d49c0f7a8b2",
                "_id": "62567725a10d3d49c0f7a8b2",
                "name": "hllo",
                "userName": "vignesh",
                "createdAt": "2022-04-13T12:39:25.685",
                "profileImage": "https://mekeet.s3.ap-southeast-1.amazonaws.com/16503729817496225-file_1650372980.473579.jpeg",
                "role": "MEMBER",
                "accountType": "PERSONAL",
                "score": 0.0,
                "reviewCount": 0,
                "session": {
                    "active": false,
                    "sessionId": "3326b37c-aeae-be59-25f2-bdaeb2fde26e",
                    "startedAt": "2022-09-19T07:14:40.928",
                    "endedAt": "2022-09-19T07:15:25.087"
                },
                "comments": 3,
                "location": {
                    "type": "Point",
                    "coordinates": [
                        79.761892,
                        11.7478164
                    ]
                },
                "status": "ACTIVE",
                "following": false,
                "requested": false,
                "blocked": false,
                "followedBy": true,
                "requestedBy": false,
                "blockedBy": false,
                "private": false
            },
            "comments": null,
            "categoryDetail": {
                "id": "628e61ca29fe1677858684bf",
                "name": "Mobile Phone",
                "url": "https://meeketapi.s3.ap-southeast-1.amazonaws.com/trade-category/mobile-phone.svg",
                "type": "PRODUCT",
                "translations": []
            },
            "recentListings": [],
            "listingId": "63244d5ab2df6253ddac0c99",
            "title": "English trade",
            "description": "English trade",
            "category": "Mobile Phone",
            "price": 677.0,
            "currency": "INR",
            "locationName": "Manjakuppam",
            "location": {
                "type": "Point",
                "coordinates": [
                    79.761892,
                    11.7478164
                ]
            },
            "negotiable": false,
            "postedBy": "62567725a10d3d49c0f7a8b2",
            "showInProfile": true,
            "tagLocationName": null,
            "tagLocation": null,
            "feelingQuote": null,
            "postedAt": "2022-09-16T10:18:02.581",
            "updatedAt": null,
            "status": "ACTIVE",
            "type": "PRODUCT",
            "images": [
                {
                    "id": "63244d5ab2df6253ddac0c97",
                    "fileName": "16633234818269517-file_1663323480.9246302.jpeg",
                    "originalFileName": "file_1663323480.9246302.jpeg",
                    "url": "https://dev.meeket.vn/api/v1.0/files/16633234818269517-file_1663323480.9246302.jpeg",
                    "primary": true,
                    "moderationRequired": false,
                    "nsfwPredictions": null,
                    "type": null,
                    "duration": 0.0,
                    "height": 0,
                    "width": 0,
                    "thumbnails": []
                }
            ],
            "likeCount": 0,
            "likes": null,
            "saveCount": 0,
            "commentCount": 0,
            "saves": null,
            "messageCount": 0,
            "reportCount": 0,
            "messagedByIds": null,
            "safe": false,
            "moderationRequired": false,
            "statusMessage": null,
            "textScore": null,
            "tags": [
                "English",
                "trade"
            ]
        }
        
        
    ]
}






